/* This may look like nonsense, but it really is -*- mode: C; coding: utf-8 -*- */
/*                                                                              */
/* Except for parts copied from previous work and as explicitly stated below,   */
/* the author and copyright holder for this work is                             */
/* Copyright (c) 2017 Jens Gustedt, INRIA, France                               */
/*                                                                              */
/* This file is free software; it is part of the Modular C project.             */
/*                                                                              */
/* You can redistribute it and/or modify it under the terms of the BSD          */
/* License as given in the file LICENSE.txt. It is distributed without          */
/* any warranty; without even the implied warranty of merchantability or        */
/* fitness for a particular purpose.                                            */
/*                                                                              */
#pragma CMOD module    once =
#pragma CMOD separator ¯
#pragma CMOD import OS    = ..¯..
#pragma CMOD import ponce = OS¯thread¯once
#pragma CMOD context  C¯attribute

#pragma CMOD declaration

typedef ponce once;
#define INIT  ponce¯INIT

inline
void call(once* flag, C¯interface¯effect func) {
  〚std¯maybe_unused〛 int ret = ponce¯call(flag, func);
}
